PCA vs. LDA performance for Breast Cancer Benign & Malignant Cases
…
# Converting M and B to numerical values for classification where benign=0 and malignant = 1  
breastCancer$diagnosis<-factor(breastCancer$diagnosis,labels = c(0,1))

breastCancer_noid<-breastCancer[,c(-1)]
breastCancer_noid

## # A tibble: 569 × 11
##    diagnosis radius_mean texture_mean perimeter_mean area_mean smoothness_mean
##    <fct>           <dbl>        <dbl>          <dbl>     <dbl>           <dbl>
##  1 1                18.0         10.4          123.      1001           0.118 
##  2 1                20.6         17.8          133.      1326           0.0847
##  3 1                19.7         21.2          130       1203           0.110 
##  4 1                11.4         20.4           77.6      386.          0.142 
##  5 1                20.3         14.3          135.      1297           0.100 
##  6 1                12.4         15.7           82.6      477.          0.128 
##  7 1                18.2         20.0          120.      1040           0.0946
##  8 1                13.7         20.8           90.2      578.          0.119 
##  9 1                13           21.8           87.5      520.          0.127 
## 10 1                12.5         24.0           84.0      476.          0.119 
## # ℹ 559 more rows
## # ℹ 5 more variables: compactness_mean <dbl>, concavity_mean <dbl>,
## #   concave_points_mean <dbl>, symmetry_mean <dbl>,
## #   fractal_dimension_mean <dbl>
…
